{
    "prepare_queue": {
        "installed": [],
        "uninstalled": []
    },
    "config_munge": {
        "files": {
            "config.xml": {
                "parents": {
                    "/*": [
                        {
                            "xml": "<feature name=\"Device\"><param name=\"ios-package\" value=\"CDVDevice\" /></feature>",
                            "count": 1
                        },
                        {
                            "xml": "<feature name=\"CDVIonicKeyboard\"><param name=\"ios-package\" onload=\"true\" value=\"CDVIonicKeyboard\" /></feature>",
                            "count": 1
                        },
                        {
                            "xml": "<feature name=\"Pedometer\"><param name=\"ios-package\" value=\"Pedometer\" /><param name=\"onload\" value=\"true\" /></feature>",
                            "count": 1
                        },
                        {
                            "xml": "<feature name=\"SplashScreen\"><param name=\"ios-package\" value=\"CDVSplashScreen\" /><param name=\"onload\" value=\"true\" /></feature>",
                            "count": 1
                        },
                        {
                            "xml": "<feature name=\"StatusBar\"><param name=\"ios-package\" value=\"CDVStatusBar\" /><param name=\"onload\" value=\"true\" /></feature>",
                            "count": 1
                        },
                        {
                            "xml": "<preference name=\"StatusBarOverlaysWebView\" value=\"true\" />",
                            "count": 1
                        },
                        {
                            "xml": "<preference name=\"StatusBarStyle\" value=\"lightcontent\" />",
                            "count": 1
                        },
                        {
                            "xml": "<feature name=\"SQLitePlugin\"><param name=\"ios-package\" value=\"SQLitePlugin\" /></feature>",
                            "count": 1
                        }
                    ]
                }
            }
        }
    },
    "installed_plugins": {
        "cordova-plugin-device": {
            "PACKAGE_NAME": "com.ibm.fitlead"
        },
        "cordova-plugin-ionic-keyboard": {
            "PACKAGE_NAME": "com.ibm.fitlead"
        },
        "cordova-plugin-pedometer": {
            "PACKAGE_NAME": "com.ibm.fitlead"
        },
        "cordova-plugin-splashscreen": {
            "PACKAGE_NAME": "com.ibm.fitlead"
        },
        "cordova-plugin-statusbar": {
            "PACKAGE_NAME": "com.ibm.fitlead"
        },
        "cordova-plugin-whitelist": {
            "PACKAGE_NAME": "com.ibm.fitlead"
        },
        "cordova-sqlite-storage": {
            "PACKAGE_NAME": "com.ibm.fitlead"
        }
    },
    "dependent_plugins": {},
    "modules": [
        {
            "id": "cordova-plugin-device.device",
            "file": "plugins/cordova-plugin-device/www/device.js",
            "pluginId": "cordova-plugin-device",
            "clobbers": [
                "device"
            ]
        },
        {
            "id": "cordova-plugin-ionic-keyboard.keyboard",
            "file": "plugins/cordova-plugin-ionic-keyboard/www/ios/keyboard.js",
            "pluginId": "cordova-plugin-ionic-keyboard",
            "clobbers": [
                "window.Keyboard"
            ]
        },
        {
            "id": "cordova-plugin-pedometer.Pedometer",
            "file": "plugins/cordova-plugin-pedometer/www/pedometer.js",
            "pluginId": "cordova-plugin-pedometer",
            "clobbers": [
                "pedometer"
            ]
        },
        {
            "id": "cordova-plugin-splashscreen.SplashScreen",
            "file": "plugins/cordova-plugin-splashscreen/www/splashscreen.js",
            "pluginId": "cordova-plugin-splashscreen",
            "clobbers": [
                "navigator.splashscreen"
            ]
        },
        {
            "id": "cordova-plugin-statusbar.statusbar",
            "file": "plugins/cordova-plugin-statusbar/www/statusbar.js",
            "pluginId": "cordova-plugin-statusbar",
            "clobbers": [
                "window.StatusBar"
            ]
        },
        {
            "id": "cordova-sqlite-storage.SQLitePlugin",
            "file": "plugins/cordova-sqlite-storage/www/SQLitePlugin.js",
            "pluginId": "cordova-sqlite-storage",
            "clobbers": [
                "SQLitePlugin"
            ]
        }
    ],
    "plugin_metadata": {
        "cordova-plugin-device": "2.0.3",
        "cordova-plugin-ionic-keyboard": "2.2.0",
        "cordova-plugin-pedometer": "0.4.1",
        "cordova-plugin-splashscreen": "5.0.4",
        "cordova-plugin-statusbar": "2.4.3",
        "cordova-plugin-whitelist": "1.3.4",
        "cordova-sqlite-storage": "3.4.1"
    }
}